{
    "port": 8080,
    "secret": "secret",
    "dbconfig": {
        "db_user": "testuser",
        "db_password": "testuser",
        "db_name": "test"
    },
    "loadStates": ["On Stock", "En route to Pick Up", "Arrived to Pick Up", "En route to delivery", "Arrived to delivery"],
    "truckTypes":[
        {
            "type":"SPRINTER",
            "width": 250, 
            "length": 350,
            "height": 170,
            "max_weight": 1700
        },
        {
            "type":"SPRINTER",
            "width": 250, 
            "length": 500,
            "height": 170,
            "max_weight": 2500
        },
        {
            "type":"LARGE STRAIGHT",
            "width": 350, 
            "length": 700,
            "height": 200,
            "max_weight": 4000
        }
    ]
}
